{
    "mc21":false,
    "mc24":false,
    "data":false,
    "offline_jets": false,
    "do_track_matching": true,
    "emtopo_jets": true,
    "additional_chains": [],
    "dumper": {
        "jet_collection": "tempEmtopoJets",
        "calibration": {},
        "selection": {
            "minimum_jet_pt": 20000,
            "maximum_jet_absolute_eta": 2.5
        },
        "vertex_collection": "HLT_IDVertex_JetSuper",
        "dl2_configs": [],
        "variables": {
            "jet" : {
                "ints": [
                    "HadronConeExclTruthLabelID",
                    "HadronConeExclExtendedTruthLabelID",
                    "jetPtRank"                ],
                "floats": [
                    "HadronConeExclTruthLabelPt",
                    "pt"
                ],
                "halves": [
                    "eta",
                    "fastDips_pb",
                    "fastDips_pc",
                    "fastDips_pu",
                    "fastGN120230327_pb",
                    "fastGN120230327_pc",
                    "fastGN120230327_pu",
                    "fastGN120230331_pb",
                    "fastGN120230331_pc",
                    "fastGN120230331_pu",
                    "fastGN220240122_pb",
                    "fastGN220240122_pc",
                    "fastGN220240122_pu"
                ]
            },
            "event": {
                "compressed": [
                    "mcEventWeight",
                    "eventNumber",
                    "averageInteractionsPerCrossing",
                    "actualInteractionsPerCrossing",
                    "nPrimaryVertices",
                    "primaryVertexBeamspotZ",
                    "primaryVertexDetectorZUncertainty"
                ]
            },
            "default_mapping": {
                "file": "fragments/default-mapping.json"
            }
        },
        "tracks": [

        ],
        "truths": [
            {
                "file": "fragments/overlap-leptons.json"
            }
        ],
        "decorate": {
            "jet_aug": false,
            "btag_jes": false,
            "soft_muon": false,
            "track_sv_info": false
        },
        "btagging_link": ""
    }
}
